{
    "lat": 48.3833,
    "lon": 16.5167,
    "timezone": "Europe/Vienna",
    "timezone_offset": 3600,
    "current": {
        "dt": 1638976350,
        "sunrise": 1638945147,
        "sunset": 1638975574,
        "temp": 275.69,
        "feels_like": 271.23,
        "pressure": 1006,
        "humidity": 77,
        "dew_point": 272.2,
        "uvi": 0,
        "clouds": 98,
        "visibility": 10000,
        "wind_speed": 5.36,
        "wind_deg": 135,
        "wind_gust": 7.6,
        "weather": [
            {
                "id": 500,
                "main": "Rain",
                "description": "light rain",
                "icon": "10n"
            }
        ],
        "rain": {
            "1h": 0.14
        }
    },
    "daily": [
        {
            "dt": 1638957600,
            "sunrise": 1638945147,
            "sunset": 1638975574,
            "moonrise": 1638960120,
            "moonset": 1638992220,
            "moon_phase": 0.16,
            "temp": {
                "day": 274.63,
                "min": 270.9,
                "max": 275.85,
                "night": 273.71,
                "eve": 275.56,
                "morn": 270.9
            },
            "feels_like": {
                "day": 269.11,
                "night": 267.3,
                "eve": 270.25,
                "morn": 267.48
            },
            "pressure": 1008,
            "humidity": 72,
            "dew_point": 270.06,
            "wind_speed": 9.13,
            "wind_deg": 135,
            "wind_gust": 18.23,
            "weather": [
                {
                    "id": 600,
                    "main": "Snow",
                    "description": "light snow",
                    "icon": "13d"
                }
            ],
            "clouds": 18,
            "pop": 0.2,
            "snow": 0.12,
            "uvi": 0.74
        },
        {
            "dt": 1639044000,
            "sunrise": 1639031609,
            "sunset": 1639061964,
            "moonrise": 1639048200,
            "moonset": 1639083360,
            "moon_phase": 0.19,
            "temp": {
                "day": 273.4,
                "min": 273,
                "max": 273.9,
                "night": 273.56,
                "eve": 273.3,
                "morn": 273.74
            },
            "feels_like": {
                "day": 273.4,
                "night": 269.08,
                "eve": 269.92,
                "morn": 268
            },
            "pressure": 1008,
            "humidity": 99,
            "dew_point": 273.08,
            "wind_speed": 8.05,
            "wind_deg": 128,
            "wind_gust": 16.8,
            "weather": [
                {
                    "id": 601,
                    "main": "Snow",
                    "description": "snow",
                    "icon": "13d"
                }
            ],
            "clouds": 100,
            "pop": 1,
            "snow": 15.51,
            "uvi": 0.26
        },
        {
            "dt": 1639130400,
            "sunrise": 1639118068,
            "sunset": 1639148358,
            "moonrise": 1639135920,
            "moonset": 1639174260,
            "moon_phase": 0.23,
            "temp": {
                "day": 273.44,
                "min": 271.08,
                "max": 274.2,
                "night": 273.75,
                "eve": 274.06,
                "morn": 274.18
            },
            "feels_like": {
                "day": 270.78,
                "night": 269.28,
                "eve": 267.85,
                "morn": 271.15
            },
            "pressure": 1005,
            "humidity": 96,
            "dew_point": 272.66,
            "wind_speed": 8.42,
            "wind_deg": 152,
            "wind_gust": 15.85,
            "weather": [
                {
                    "id": 601,
                    "main": "Snow",
                    "description": "snow",
                    "icon": "13d"
                }
            ],
            "clouds": 54,
            "pop": 1,
            "snow": 1.71,
            "uvi": 0.78
        },
        {
            "dt": 1639216800,
            "sunrise": 1639204525,
            "sunset": 1639234754,
            "moonrise": 1639223460,
            "moonset": 0,
            "moon_phase": 0.25,
            "temp": {
                "day": 272.18,
                "min": 272.15,
                "max": 275.28,
                "night": 275.28,
                "eve": 273.21,
                "morn": 273.31
            },
            "feels_like": {
                "day": 272.18,
                "night": 270.62,
                "eve": 269.51,
                "morn": 271.11
            },
            "pressure": 1014,
            "humidity": 91,
            "dew_point": 270.71,
            "wind_speed": 5.55,
            "wind_deg": 311,
            "wind_gust": 12.46,
            "weather": [
                {
                    "id": 803,
                    "main": "Clouds",
                    "description": "broken clouds",
                    "icon": "04d"
                }
            ],
            "clouds": 72,
            "pop": 0.01,
            "uvi": 0.84
        },
        {
            "dt": 1639303200,
            "sunrise": 1639290980,
            "sunset": 1639321154,
            "moonrise": 1639310880,
            "moonset": 1639264920,
            "moon_phase": 0.29,
            "temp": {
                "day": 274.06,
                "min": 273.19,
                "max": 275.26,
                "night": 273.19,
                "eve": 275.26,
                "morn": 274.79
            },
            "feels_like": {
                "day": 268.36,
                "night": 268.82,
                "eve": 270.27,
                "morn": 269.48
            },
            "pressure": 1027,
            "humidity": 83,
            "dew_point": 271.26,
            "wind_speed": 7.48,
            "wind_deg": 316,
            "wind_gust": 14.24,
            "weather": [
                {
                    "id": 803,
                    "main": "Clouds",
                    "description": "broken clouds",
                    "icon": "04d"
                }
            ],
            "clouds": 53,
            "pop": 0.04,
            "uvi": 0.9
        },
        {
            "dt": 1639389600,
            "sunrise": 1639377432,
            "sunset": 1639407556,
            "moonrise": 1639398240,
            "moonset": 1639355520,
            "moon_phase": 0.33,
            "temp": {
                "day": 274.02,
                "min": 270.76,
                "max": 274.89,
                "night": 270.76,
                "eve": 273.51,
                "morn": 273.18
            },
            "feels_like": {
                "day": 270.36,
                "night": 267.56,
                "eve": 269.65,
                "morn": 269.06
            },
            "pressure": 1028,
            "humidity": 95,
            "dew_point": 273.1,
            "wind_speed": 4.24,
            "wind_deg": 325,
            "wind_gust": 10.08,
            "weather": [
                {
                    "id": 600,
                    "main": "Snow",
                    "description": "light snow",
                    "icon": "13d"
                }
            ],
            "clouds": 96,
            "pop": 0.25,
            "snow": 0.11,
            "uvi": 1
        },
        {
            "dt": 1639476000,
            "sunrise": 1639463882,
            "sunset": 1639493962,
            "moonrise": 1639485600,
            "moonset": 1639445940,
            "moon_phase": 0.36,
            "temp": {
                "day": 274,
                "min": 270.28,
                "max": 276.72,
                "night": 276.72,
                "eve": 274.83,
                "morn": 271.02
            },
            "feels_like": {
                "day": 272.33,
                "night": 273.45,
                "eve": 274.83,
                "morn": 268.34
            },
            "pressure": 1027,
            "humidity": 96,
            "dew_point": 273.25,
            "wind_speed": 3.69,
            "wind_deg": 295,
            "wind_gust": 10.07,
            "weather": [
                {
                    "id": 500,
                    "main": "Rain",
                    "description": "light rain",
                    "icon": "10d"
                }
            ],
            "clouds": 100,
            "pop": 0.94,
            "rain": 2.6,
            "uvi": 1
        },
        {
            "dt": 1639562400,
            "sunrise": 1639550330,
            "sunset": 1639580370,
            "moonrise": 1639573080,
            "moonset": 1639536360,
            "moon_phase": 0.39,
            "temp": {
                "day": 275.39,
                "min": 273.2,
                "max": 277.04,
                "night": 273.2,
                "eve": 274.88,
                "morn": 276.3
            },
            "feels_like": {
                "day": 270.97,
                "night": 270.42,
                "eve": 271.6,
                "morn": 271.79
            },
            "pressure": 1033,
            "humidity": 81,
            "dew_point": 272.16,
            "wind_speed": 5.8,
            "wind_deg": 319,
            "wind_gust": 11.75,
            "weather": [
                {
                    "id": 500,
                    "main": "Rain",
                    "description": "light rain",
                    "icon": "10d"
                }
            ],
            "clouds": 92,
            "pop": 0.94,
            "rain": 2.17,
            "uvi": 1
        }
    ],
    "alerts": [
        {
            "sender_name": "ZAMG Zentralanstalt für Meteorologie und Geodynamik",
            "event": "Snow-Icewarning",
            "start": 1639004400,
            "end": 1639090800,
            "description": "Fresh snow up to 20 cm is possible.",
            "tags": [
                "Snow/Ice"
            ]
        }
    ]
}